{
  "name": "react-hooks-template",
  "reason": {
    "react-jsx": 3
  },
  "sources": [
    {
      "dir": "src",
      "subdirs": true
    },
    {
      "dir": "__tests__",
      "type": "dev",
      "subdirs": true
    }
  ],
  "package-specs": ["commonjs"],
  "bs-dependencies": ["reason-react", "@glennsl/bs-json", "bs-moment", "bs-css"],
  "bs-dev-dependencies": ["@glennsl/bs-json", "@glennsl/bs-jest", "bs-moment", "bs-css"],
  "refmt": 3,
  "bsc-flags": ["-bs-no-version-header", "-bs-super-errors"],
  "warnings": {
    "_comment": [
      "activate all warnings as errors but leave #20",
      "(warns when a raw js function has no type signature)",
      "Remove the exception when issue #1354 is fixed"
    ],
    "error": "+A-20"
  }
}
